<?xml version="1.0" encoding="UTF-8" standalone="no"?>
<!-- Created with Inkscape (http://www.inkscape.org/) -->

<svg
   xmlns:osb="http://www.openswatchbook.org/uri/2009/osb"
   xmlns:dc="http://purl.org/dc/elements/1.1/"
   xmlns:cc="http://creativecommons.org/ns#"
   xmlns:rdf="http://www.w3.org/1999/02/22-rdf-syntax-ns#"
   xmlns:svg="http://www.w3.org/2000/svg"
   xmlns="http://www.w3.org/2000/svg"
   xmlns:xlink="http://www.w3.org/1999/xlink"
   xmlns:sodipodi="http://sodipodi.sourceforge.net/DTD/sodipodi-0.dtd"
   xmlns:inkscape="http://www.inkscape.org/namespaces/inkscape"
   width="16"
   height="16"
   id="svg2"
   version="1.1"
   inkscape:version="0.91 r13725"
   sodipodi:docname="checkbox-checked.svg"
   inkscape:export-filename="/home/steffen/.local/share/themes/neu2/gtk-3.0/assets/dark/checkbox-unchecked.png"
   inkscape:export-xdpi="90"
   inkscape:export-ydpi="90">
  <defs
     id="defs4">
    <linearGradient
       id="selected_bg_color"
       osb:paint="solid">
      <stop
         style="stop-color:#A0524F;stop-opacity:1;"
         offset="0"
         id="stop4159" />
    </linearGradient>
    <linearGradient
       id="linearGradient3768-6">
      <stop
         style="stop-color:#0f0f0f;stop-opacity:1;"
         offset="0"
         id="stop3770-6" />
      <stop
         id="stop3778-2"
         offset="0.078125"
         style="stop-color:#171717;stop-opacity:1;" />
      <stop
         style="stop-color:#171717;stop-opacity:1;"
         offset="0.97355771"
         id="stop3774-0" />
      <stop
         style="stop-color:#1b1b1b;stop-opacity:1;"
         offset="1"
         id="stop3776-1" />
    </linearGradient>
    <linearGradient
       inkscape:collect="always"
       xlink:href="#selected_bg_color"
       id="linearGradient4161"
       x1="25"
       y1="31.362191"
       x2="25"
       y2="45.362191"
       gradientUnits="userSpaceOnUse" />
  </defs>
  <sodipodi:namedview
     id="base"
     pagecolor="#ffffff"
     bordercolor="#666666"
     borderopacity="1.0"
     inkscape:pageopacity="0.0"
     inkscape:pageshadow="2"
     inkscape:zoom="11.313709"
     inkscape:cx="-1.9931035"
     inkscape:cy="7.5299665"
     inkscape:document-units="px"
     inkscape:current-layer="layer1"
     showgrid="true"
     inkscape:snap-bbox="true"
     showguides="true"
     inkscape:guide-bbox="true"
     inkscape:showpageshadow="false"
     showborder="true"
     inkscape:window-width="1006"
     inkscape:window-height="723"
     inkscape:window-x="358"
     inkscape:window-y="22"
     inkscape:window-maximized="0"
     inkscape:bbox-paths="true"
     inkscape:bbox-nodes="true"
     inkscape:snap-bbox-edge-midpoints="true">
    <inkscape:grid
       type="xygrid"
       id="grid2985"
       empspacing="5"
       visible="true"
       enabled="true"
       snapvisiblegridlinesonly="true" />
  </sodipodi:namedview>
  <metadata
     id="metadata7">
    <rdf:RDF>
      <cc:Work
         rdf:about="">
        <dc:format>image/svg+xml</dc:format>
        <dc:type
           rdf:resource="http://purl.org/dc/dcmitype/StillImage" />
        <dc:title />
      </cc:Work>
    </rdf:RDF>
  </metadata>
  <g
     inkscape:label="Ebene 1"
     inkscape:groupmode="layer"
     id="layer1"
     transform="translate(0,-1036.3622)">
    <g
       transform="translate(-36,1036)"
       style="display:inline;opacity:1"
       id="checkbox-checked-dark"
       inkscape:label="#g10758">
      <g
         inkscape:label="#g22047"
         id="checkbox-unchecked-5-59"
         style="display:inline"
         transform="translate(19,0)">
        <g
           id="sdsd-7-54"
           inkscape:label="#g21853">
          <g
             transform="translate(0,-30)"
             inkscape:label="#g14325"
             id="scdsdcd-5-8">
            <g
               transform="matrix(0.92951982,0,0,0.92914368,-156.75069,-212.9618)"
               id="g15812-6-6-1-5-4"
               style="display:inline">
              <g
                 style="display:inline"
                 id="g5489-2-9-6-8-8-53-5"
                 transform="matrix(0.5089163,0,0,0.51739823,161.7932,197.56426)">
                <g
                   id="g5428-8-1-4-0-0-4-2" />
              </g>
            </g>
            <rect
               style="color:#000000;display:inline;overflow:visible;visibility:visible;fill:none;stroke:none;stroke-width:2;marker:none;enable-background:accumulate"
               id="rect13523-7-11"
               width="16"
               height="16"
               x="17"
               y="30.362183" />
            <g
               id="g5400-6-68">
              <rect
                 rx="1.9999943"
                 y="31.362196"
                 x="18.000006"
                 height="13.99999"
                 width="13.999989"
                 id="rect5147-9-1-5-7-6-7-4"
                 style="color:#000000;display:inline;overflow:visible;visibility:visible;fill:url(#linearGradient4161);fill-opacity:1;stroke:#000000;stroke-width:0;stroke-linecap:butt;stroke-linejoin:round;stroke-miterlimit:4;stroke-dasharray:none;stroke-dashoffset:0;stroke-opacity:1;marker:none;enable-background:accumulate"
                 ry="1.9999917" />
            </g>
          </g>
        </g>
      </g>
      <g
         inkscape:label="Ebene 1"
         id="checkbox-checked-dark-7-37"
         transform="translate(36,-1036)"
         style="display:inline">
        <g
           id="g3981-6-4-97"
           transform="matrix(0.70710678,0.70710678,-0.70710678,0.70710678,729.95475,305.0582)"
           style="opacity:0.85;fill:#1a1a1a;fill-opacity:1" />
        <g
           id="g4049-2-5"
           transform="matrix(0.70710678,0.70710678,-0.70710678,0.70710678,727.94436,295.31123)">
          <g
             id="g4056-7-6"
             transform="translate(12.374375,11.531233)">
            <g
               id="g3981-0-8"
               transform="translate(-3,-4.9999826)"
               style="fill:#3b3c3e;fill-opacity:1">
              <rect
                 ry="0.66666085"
                 rx="0.66666085"
                 y="1033.3622"
                 x="8"
                 height="1.9999826"
                 width="5"
                 id="rect3977-39-90"
                 style="fill:#2b303b;fill-opacity:1;stroke:none" />
              <rect
                 ry="0"
                 y="1027.3622"
                 x="11"
                 height="7.9999828"
                 width="2"
                 id="rect3979-7-60"
                 style="fill:#2b303b;fill-opacity:1;stroke:none" />
            </g>
            <rect
               style="fill:#eeeeee;fill-opacity:0;stroke:none"
               id="rect4047-81-5"
               width="3"
               height="1"
               x="5"
               y="-8"
               transform="translate(0,1036.3622)" />
          </g>
        </g>
      </g>
    </g>
  </g>
</svg>
